00000000 0 0 0 0 0 0
fffffddf 0 0 0 0 1 0
000002a8 0 1 0 0 2 0
000002a6 0 1 0 0 3 0
fffff9a9 0 2 0 0 4 0
fffffd8b 0 2 0 0 5 0
00000afb 0 3 0 0 6 0
000003f6 0 3 0 0 7 0
ffffe832 0 4 0 0 8 0
fffffc62 0 4 0 0 9 0
00004d4c 0 5 0 0 10 0
00007fff 0 5 0 0 11 0
