xpm_cdc.sv,systemverilog,xil_defaultlib,../../../../../../../../Xilinx/Vivado/2016.3/data/ip/xpm/xpm_cdc/hdl/xpm_cdc.sv,
xpm_memory.sv,systemverilog,xil_defaultlib,../../../../../../../../Xilinx/Vivado/2016.3/data/ip/xpm/xpm_memory/hdl/xpm_memory.sv,
xpm_VCOMP.vhd,vhdl,xpm,../../../../../../../../Xilinx/Vivado/2016.3/data/ip/xpm/xpm_VCOMP.vhd,
xbip_utils_v3_0_vh_rfs.vhd,vhdl,xbip_utils_v3_0_7,../../../ipstatic/hdl/xbip_utils_v3_0_vh_rfs.vhd,
axi_utils_v2_0_vh_rfs.vhd,vhdl,axi_utils_v2_0_3,../../../ipstatic/hdl/axi_utils_v2_0_vh_rfs.vhd,
c_reg_fd_v12_0_vh_rfs.vhd,vhdl,c_reg_fd_v12_0_3,../../../ipstatic/hdl/c_reg_fd_v12_0_vh_rfs.vhd,
xbip_dsp48_wrapper_v3_0_vh_rfs.vhd,vhdl,xbip_dsp48_wrapper_v3_0_4,../../../ipstatic/hdl/xbip_dsp48_wrapper_v3_0_vh_rfs.vhd,
xbip_pipe_v3_0_vh_rfs.vhd,vhdl,xbip_pipe_v3_0_3,../../../ipstatic/hdl/xbip_pipe_v3_0_vh_rfs.vhd,
xbip_dsp48_addsub_v3_0_vh_rfs.vhd,vhdl,xbip_dsp48_addsub_v3_0_3,../../../ipstatic/hdl/xbip_dsp48_addsub_v3_0_vh_rfs.vhd,
xbip_addsub_v3_0_vh_rfs.vhd,vhdl,xbip_addsub_v3_0_3,../../../ipstatic/hdl/xbip_addsub_v3_0_vh_rfs.vhd,
c_addsub_v12_0_vh_rfs.vhd,vhdl,c_addsub_v12_0_10,../../../ipstatic/hdl/c_addsub_v12_0_vh_rfs.vhd,
c_mux_bit_v12_0_vh_rfs.vhd,vhdl,c_mux_bit_v12_0_3,../../../ipstatic/hdl/c_mux_bit_v12_0_vh_rfs.vhd,
c_shift_ram_v12_0_vh_rfs.vhd,vhdl,c_shift_ram_v12_0_10,../../../ipstatic/hdl/c_shift_ram_v12_0_vh_rfs.vhd,
xbip_bram18k_v3_0_vh_rfs.vhd,vhdl,xbip_bram18k_v3_0_3,../../../ipstatic/hdl/xbip_bram18k_v3_0_vh_rfs.vhd,
mult_gen_v12_0_vh_rfs.vhd,vhdl,mult_gen_v12_0_12,../../../ipstatic/hdl/mult_gen_v12_0_vh_rfs.vhd,
cmpy_v6_0_vh_rfs.vhd,vhdl,cmpy_v6_0_12,../../../ipstatic/hdl/cmpy_v6_0_vh_rfs.vhd,
floating_point_v7_0_vh_rfs.vhd,vhdl,floating_point_v7_0_13,../../../ipstatic/hdl/floating_point_v7_0_vh_rfs.vhd,
xfft_v9_0_vh_rfs.vhd,vhdl,xfft_v9_0_11,../../../ipstatic/hdl/xfft_v9_0_vh_rfs.vhd,
xfft_v1.vhd,vhdl,xil_defaultlib,../../../../ZedboardCode.srcs/sources_1/ip/xfft_v1/sim/xfft_v1.vhd,
glbl.v,Verilog,xil_defaultlib,glbl.v
